%YAML 1.1
%TAG !u! tag:unity3d.com,2011:
--- !u!1001 &100100000
Prefab:
  m_ObjectHideFlags: 1
  serializedVersion: 2
  m_Modification:
    m_TransformParent: {fileID: 0}
    m_Modifications: []
    m_RemovedComponents: []
  m_ParentPrefab: {fileID: 0}
  m_RootGameObject: {fileID: 1872555476864962}
  m_IsPrefabParent: 1
--- !u!1 &1872555476864962
GameObject:
  m_ObjectHideFlags: 0
  m_PrefabParentObject: {fileID: 0}
  m_PrefabInternal: {fileID: 100100000}
  serializedVersion: 5
  m_Component:
  - component: {fileID: 4427125497587264}
  - component: {fileID: 114580375190602952}
  m_Layer: 0
  m_Name: AudioCatalog
  m_TagString: Untagged
  m_Icon: {fileID: 0}
  m_NavMeshLayer: 0
  m_StaticEditorFlags: 0
  m_IsActive: 1
--- !u!4 &4427125497587264
Transform:
  m_ObjectHideFlags: 1
  m_PrefabParentObject: {fileID: 0}
  m_PrefabInternal: {fileID: 100100000}
  m_GameObject: {fileID: 1872555476864962}
  m_LocalRotation: {x: 0, y: 0, z: 0, w: 1}
  m_LocalPosition: {x: -0.11, y: 1, z: -10}
  m_LocalScale: {x: 1, y: 1, z: 1}
  m_Children: []
  m_Father: {fileID: 0}
  m_RootOrder: 0
  m_LocalEulerAnglesHint: {x: 0, y: 0, z: 0}
--- !u!114 &114580375190602952
MonoBehaviour:
  m_ObjectHideFlags: 1
  m_PrefabParentObject: {fileID: 0}
  m_PrefabInternal: {fileID: 100100000}
  m_GameObject: {fileID: 1872555476864962}
  m_Enabled: 1
  m_EditorHideFlags: 0
  m_Script: {fileID: 11500000, guid: 04274bee89a984d8fb5416e65d65af4f, type: 3}
  m_Name: 
  m_EditorClassIdentifier: 
  BackgroundSongs:
  - {fileID: 8300000, guid: 3393f32e6521c49a08f431b15731d0d9, type: 3}
  - {fileID: 8300000, guid: bc62774f3fa564d638211bca63238e02, type: 3}
  - {fileID: 8300000, guid: 15484a8a27c2d48ad8d5d47d6a2dbe6f, type: 3}
  - {fileID: 8300000, guid: e696e8984b55948b09cac888c2a191ae, type: 3}
  - {fileID: 8300000, guid: 6fd2a6b0e84e0482cae9d015cc388be0, type: 3}
